…
## Comparison in terms of the cross-validated prediction error

``` r
#crossv_mc preforms the training / testing split multiple times
cv_df = 
  crossv_mc(birthweight_df, 100) 

#double check for no repetitive..
cv_df %>% pull(train) %>% .[[1]] %>% as_tibble
```

    ## # A tibble: 3,473 × 20
    ##    babysex bhead blength   bwt delwt fincome dad_race gaweeks malform menarche
    ##    <fct>   <dbl>   <dbl> <dbl> <dbl>   <dbl> <fct>      <dbl> <fct>      <dbl>
    ##  1 female     34      51  3629   177      35 white       39.9 absent        13
    ##  2 male       34      52  3062   157      55 white       40   absent        14
    ##  3 female     34      52  3374   156       5 white       41.6 absent        13
    ##  4 male       33      52  3374   129      55 white       40.7 absent        12
    ##  5 female     33      46  2523   126      96 black       40.3 absent        14
    ##  6 male       36      52  3515   146      85 white       40.3 absent        11
    ##  7 male       33      50  3459   169      75 black       40.7 absent        12
    ##  8 male       35      51  3459   146      55 white       39.4 absent        12
    ##  9 female     35      48  3175   158      75 white       39.7 absent        13
    ## 10 male       36      53  3629   147      75 white       41.3 absent        11
    ## # … with 3,463 more rows, and 10 more variables: mheight <dbl>, momage <dbl>,
    ## #   mom_race <fct>, parity <dbl>, pnumlbw <dbl>, pnumsga <dbl>, ppbmi <dbl>,
    ## #   ppwt <dbl>, smoken <dbl>, wtgain <dbl>

``` r
cv_df %>% pull(test) %>% .[[1]] %>% as_tibble
```

    ## # A tibble: 869 × 20
    ##    babysex bhead blength   bwt delwt fincome dad_race gaweeks malform menarche
    ##    <fct>   <dbl>   <dbl> <dbl> <dbl>   <dbl> <fct>      <dbl> <fct>      <dbl>
    ##  1 male       34      48  3062   156      65 black       25.9 absent        14
    ##  2 female     36      50  3345   148      85 white       39.9 absent        12
    ##  3 female     33      49  2778   140       5 white       37.4 absent        12
    ##  4 female     35      51  3317   130      55 white       43.4 absent        13
    ##  5 female     33      49  2551   120      75 black       38.1 absent        11
    ##  6 female     35      57  3374   147      45 white       39.6 absent        12
    ##  7 female     36      51  2977   135      45 white       41.7 absent        13
    ##  8 female     33      49  2948   129      25 white       41   absent        13
    ##  9 male       35      51  3345   145      75 white       41.3 absent        12
    ## 10 male       35      52  3232   121      75 asian       42.3 absent        13
    ## # … with 859 more rows, and 10 more variables: mheight <dbl>, momage <dbl>,
    ## #   mom_race <fct>, parity <dbl>, pnumlbw <dbl>, pnumsga <dbl>, ppbmi <dbl>,
    ## #   ppwt <dbl>, smoken <dbl>, wtgain <dbl>
…
